{
  "MODIFIED": {
    "angestellter": [
      {
        "MODIFICATIONS": {
          "cdb_mdate": {
            "NEW_VALUE": "29.05.2019 11:08:46", 
            "OLD_VALUE": "20.09.2017 12:15:38"
          }, 
          "is_test_engineer": {
            "NEW_VALUE": 1
          }
        }, 
        "PRIMARY_KEYS": {
          "personalnummer": "caddok"
        }
      }
    ]
  }
}