{
  "cdb_op_owner": {
    "CONTENT": [
      {"PRIMARY_KEYS": {"classname": "change_request2document", "name": "CDB_Copy", "role_id": "public"}, "DATA": {"cdb_module_id": "rbei.plm"}},
      {"PRIMARY_KEYS": {"classname": "change_request2person", "name": "CDB_Copy", "role_id": "public"}, "DATA": {"cdb_module_id": "rbei.plm"}},
      {"PRIMARY_KEYS": {"classname": "change_request_tracker", "name": "CDB_Copy", "role_id": "public"}, "DATA": {"cdb_module_id": "rbei.plm"}},
      {"PRIMARY_KEYS": {"classname": "cpq_config_bom_item", "name": "CDB_Copy", "role_id": "public"}, "DATA": {"cdb_module_id": "rbei.plm"}},
      {"PRIMARY_KEYS": {"classname": "cpq_item", "name": "CDB_Copy", "role_id": "public"}, "DATA": {"cdb_module_id": "rbei.plm"}},
      {"PRIMARY_KEYS": {"classname": "cpq_item2process", "name": "CDB_Copy", "role_id": "public"}, "DATA": {"cdb_module_id": "rbei.plm"}},
      {"PRIMARY_KEYS": {"classname": "cr_bug", "name": "CDB_Copy", "role_id": "public"}, "DATA": {"cdb_module_id": "rbei.plm"}},
      {"PRIMARY_KEYS": {"classname": "cr_feature", "name": "CDB_Copy", "role_id": "public"}, "DATA": {"cdb_module_id": "rbei.plm"}},
      {"PRIMARY_KEYS": {"classname": "customer", "name": "CDB_Copy", "role_id": "public"}, "DATA": {"cdb_module_id": "rbei.plm"}},
      {"PRIMARY_KEYS": {"classname": "dummy", "name": "CDB_Copy", "role_id": "public"}, "DATA": {"cdb_module_id": "rbei.plm"}},
      {"PRIMARY_KEYS": {"classname": "iplm_item", "name": "CDB_Copy", "role_id": "public"}, "DATA": {"cdb_module_id": "rbei.plm"}},
      {"PRIMARY_KEYS": {"classname": "rb_comp_2_rb_emp", "name": "CDB_Copy", "role_id": "public"}, "DATA": {"cdb_module_id": "rbei.plm"}},
      {"PRIMARY_KEYS": {"classname": "rb_company", "name": "CDB_Copy", "role_id": "public"}, "DATA": {"cdb_module_id": "rbei.plm"}},
      {"PRIMARY_KEYS": {"classname": "rb_employee", "name": "CDB_Copy", "role_id": "public"}, "DATA": {"cdb_module_id": "rbei.plm"}},
      {"PRIMARY_KEYS": {"classname": "severity", "name": "CDB_Copy", "role_id": "public"}, "DATA": {"cdb_module_id": "rbei.plm"}},
      {"PRIMARY_KEYS": {"classname": "testlab_emission", "name": "CDB_Copy", "role_id": "public"}, "DATA": {"cdb_module_id": "rbei.plm"}},
      {"PRIMARY_KEYS": {"classname": "testlab_performance", "name": "CDB_Copy", "role_id": "public"}, "DATA": {"cdb_module_id": "rbei.plm"}},
      {"PRIMARY_KEYS": {"classname": "testlab_person", "name": "CDB_Copy", "role_id": "public"}, "DATA": {"cdb_module_id": "rbei.plm"}},
      {"PRIMARY_KEYS": {"classname": "testlab_plant", "name": "CDB_Copy", "role_id": "public"}, "DATA": {"cdb_module_id": "rbei.plm"}},
      {"PRIMARY_KEYS": {"classname": "testlab_test_cycle", "name": "CDB_Copy", "role_id": "public"}, "DATA": {"cdb_module_id": "rbei.plm"}},
      {"PRIMARY_KEYS": {"classname": "testlab_test_plan", "name": "CDB_Copy", "role_id": "public"}, "DATA": {"cdb_module_id": "rbei.plm"}},
      {"PRIMARY_KEYS": {"classname": "testlab_test_range", "name": "CDB_Copy", "role_id": "public"}, "DATA": {"cdb_module_id": "rbei.plm"}},
      {"PRIMARY_KEYS": {"classname": "change_request2document", "name": "CDB_Create", "role_id": "public"}, "DATA": {"cdb_module_id": "rbei.plm"}},
      {"PRIMARY_KEYS": {"classname": "change_request2person", "name": "CDB_Create", "role_id": "public"}, "DATA": {"cdb_module_id": "rbei.plm"}},
      {"PRIMARY_KEYS": {"classname": "change_request_tracker", "name": "CDB_Create", "role_id": "public"}, "DATA": {"cdb_module_id": "rbei.plm"}},
      {"PRIMARY_KEYS": {"classname": "cpq_config_bom_item", "name": "CDB_Create", "role_id": "public"}, "DATA": {"cdb_module_id": "rbei.plm"}},
      {"PRIMARY_KEYS": {"classname": "cpq_item", "name": "CDB_Create", "role_id": "Administrator"}, "DATA": {"cdb_module_id": "rbei.plm"}},
      {"PRIMARY_KEYS": {"classname": "cpq_item", "name": "CDB_Create", "role_id": "CPQ Bid Manager"}, "DATA": {"cdb_module_id": "rbei.plm"}},
      {"PRIMARY_KEYS": {"classname": "cpq_item", "name": "CDB_Create", "role_id": "CPQ Creator"}, "DATA": {"cdb_module_id": "rbei.plm"}},
      {"PRIMARY_KEYS": {"classname": "cpq_item", "name": "CDB_Create", "role_id": "CPQ Designer"}, "DATA": {"cdb_module_id": "rbei.plm"}},
      {"PRIMARY_KEYS": {"classname": "cpq_item", "name": "CDB_Create", "role_id": "public"}, "DATA": {"cdb_module_id": "rbei.plm"}},
      {"PRIMARY_KEYS": {"classname": "cpq_item2process", "name": "CDB_Create", "role_id": "public"}, "DATA": {"cdb_module_id": "rbei.plm"}},
      {"PRIMARY_KEYS": {"classname": "cr_bug", "name": "CDB_Create", "role_id": "public"}, "DATA": {"cdb_module_id": "rbei.plm"}},
      {"PRIMARY_KEYS": {"classname": "cr_feature", "name": "CDB_Create", "role_id": "public"}, "DATA": {"cdb_module_id": "rbei.plm"}},
      {"PRIMARY_KEYS": {"classname": "customer", "name": "CDB_Create", "role_id": "CPQ Bid Manager"}, "DATA": {"cdb_module_id": "rbei.plm"}},
      {"PRIMARY_KEYS": {"classname": "customer", "name": "CDB_Create", "role_id": "public"}, "DATA": {"cdb_module_id": "rbei.plm"}},
      {"PRIMARY_KEYS": {"classname": "dummy", "name": "CDB_Create", "role_id": "public"}, "DATA": {"cdb_module_id": "rbei.plm"}},
      {"PRIMARY_KEYS": {"classname": "iplm_item", "name": "CDB_Create", "role_id": "public"}, "DATA": {"cdb_module_id": "rbei.plm"}},
      {"PRIMARY_KEYS": {"classname": "rb_comp_2_rb_emp", "name": "CDB_Create", "role_id": "public"}, "DATA": {"cdb_module_id": "rbei.plm"}},
      {"PRIMARY_KEYS": {"classname": "rb_company", "name": "CDB_Create", "role_id": "public"}, "DATA": {"cdb_module_id": "rbei.plm"}},
      {"PRIMARY_KEYS": {"classname": "rb_employee", "name": "CDB_Create", "role_id": "public"}, "DATA": {"cdb_module_id": "rbei.plm"}},
      {"PRIMARY_KEYS": {"classname": "severity", "name": "CDB_Create", "role_id": "public"}, "DATA": {"cdb_module_id": "rbei.plm"}},
      {"PRIMARY_KEYS": {"classname": "testlab_emission", "name": "CDB_Create", "role_id": "public"}, "DATA": {"cdb_module_id": "rbei.plm"}},
      {"PRIMARY_KEYS": {"classname": "testlab_performance", "name": "CDB_Create", "role_id": "public"}, "DATA": {"cdb_module_id": "rbei.plm"}},
      {"PRIMARY_KEYS": {"classname": "testlab_person", "name": "CDB_Create", "role_id": "public"}, "DATA": {"cdb_module_id": "rbei.plm"}},
      {"PRIMARY_KEYS": {"classname": "testlab_plant", "name": "CDB_Create", "role_id": "public"}, "DATA": {"cdb_module_id": "rbei.plm"}},
      {"PRIMARY_KEYS": {"classname": "testlab_test_cycle", "name": "CDB_Create", "role_id": "public"}, "DATA": {"cdb_module_id": "rbei.plm"}},
      {"PRIMARY_KEYS": {"classname": "testlab_test_plan", "name": "CDB_Create", "role_id": "public"}, "DATA": {"cdb_module_id": "rbei.plm"}},
      {"PRIMARY_KEYS": {"classname": "testlab_test_range", "name": "CDB_Create", "role_id": "public"}, "DATA": {"cdb_module_id": "rbei.plm"}},
      {"PRIMARY_KEYS": {"classname": "cpq_item", "name": "CDB_CreateWithSearchConditions", "role_id": "public"}, "DATA": {"cdb_module_id": "rbei.plm"}},
      {"PRIMARY_KEYS": {"classname": "customer", "name": "CDB_CreateWithSearchConditions", "role_id": "public"}, "DATA": {"cdb_module_id": "rbei.plm"}},
      {"PRIMARY_KEYS": {"classname": "change_request2document", "name": "CDB_Delete", "role_id": "public"}, "DATA": {"cdb_module_id": "rbei.plm"}},
      {"PRIMARY_KEYS": {"classname": "change_request2person", "name": "CDB_Delete", "role_id": "public"}, "DATA": {"cdb_module_id": "rbei.plm"}},
      {"PRIMARY_KEYS": {"classname": "change_request_tracker", "name": "CDB_Delete", "role_id": "public"}, "DATA": {"cdb_module_id": "rbei.plm"}},
      {"PRIMARY_KEYS": {"classname": "cpq_item", "name": "CDB_Delete", "role_id": "public"}, "DATA": {"cdb_module_id": "rbei.plm"}},
      {"PRIMARY_KEYS": {"classname": "cpq_item2process", "name": "CDB_Delete", "role_id": "public"}, "DATA": {"cdb_module_id": "rbei.plm"}},
      {"PRIMARY_KEYS": {"classname": "customer", "name": "CDB_Delete", "role_id": "public"}, "DATA": {"cdb_module_id": "rbei.plm"}},
      {"PRIMARY_KEYS": {"classname": "dummy", "name": "CDB_Delete", "role_id": "public"}, "DATA": {"cdb_module_id": "rbei.plm"}},
      {"PRIMARY_KEYS": {"classname": "iplm_item", "name": "CDB_Delete", "role_id": "public"}, "DATA": {"cdb_module_id": "rbei.plm"}},
      {"PRIMARY_KEYS": {"classname": "rb_comp_2_rb_emp", "name": "CDB_Delete", "role_id": "public"}, "DATA": {"cdb_module_id": "rbei.plm"}},
      {"PRIMARY_KEYS": {"classname": "rb_company", "name": "CDB_Delete", "role_id": "public"}, "DATA": {"cdb_module_id": "rbei.plm"}},
      {"PRIMARY_KEYS": {"classname": "rb_employee", "name": "CDB_Delete", "role_id": "public"}, "DATA": {"cdb_module_id": "rbei.plm"}},
      {"PRIMARY_KEYS": {"classname": "severity", "name": "CDB_Delete", "role_id": "public"}, "DATA": {"cdb_module_id": "rbei.plm"}},
      {"PRIMARY_KEYS": {"classname": "testlab_person", "name": "CDB_Delete", "role_id": "public"}, "DATA": {"cdb_module_id": "rbei.plm"}},
      {"PRIMARY_KEYS": {"classname": "testlab_plant", "name": "CDB_Delete", "role_id": "public"}, "DATA": {"cdb_module_id": "rbei.plm"}},
      {"PRIMARY_KEYS": {"classname": "testlab_test", "name": "CDB_Delete", "role_id": "public"}, "DATA": {"cdb_module_id": "rbei.plm"}},
      {"PRIMARY_KEYS": {"classname": "testlab_test_cycle", "name": "CDB_Delete", "role_id": "public"}, "DATA": {"cdb_module_id": "rbei.plm"}},
      {"PRIMARY_KEYS": {"classname": "testlab_test_plan", "name": "CDB_Delete", "role_id": "public"}, "DATA": {"cdb_module_id": "rbei.plm"}},
      {"PRIMARY_KEYS": {"classname": "testlab_test_range", "name": "CDB_Delete", "role_id": "public"}, "DATA": {"cdb_module_id": "rbei.plm"}},
      {"PRIMARY_KEYS": {"classname": "change_request2document", "name": "CDB_Export", "role_id": "public"}, "DATA": {"cdb_module_id": "rbei.plm"}},
      {"PRIMARY_KEYS": {"classname": "change_request2person", "name": "CDB_Export", "role_id": "public"}, "DATA": {"cdb_module_id": "rbei.plm"}},
      {"PRIMARY_KEYS": {"classname": "change_request_tracker", "name": "CDB_Export", "role_id": "public"}, "DATA": {"cdb_module_id": "rbei.plm"}},
      {"PRIMARY_KEYS": {"classname": "cpq_item", "name": "CDB_Export", "role_id": "public"}, "DATA": {"cdb_module_id": "rbei.plm"}},
      {"PRIMARY_KEYS": {"classname": "cpq_item2process", "name": "CDB_Export", "role_id": "public"}, "DATA": {"cdb_module_id": "rbei.plm"}},
      {"PRIMARY_KEYS": {"classname": "customer", "name": "CDB_Export", "role_id": "public"}, "DATA": {"cdb_module_id": "rbei.plm"}},
      {"PRIMARY_KEYS": {"classname": "dummy", "name": "CDB_Export", "role_id": "public"}, "DATA": {"cdb_module_id": "rbei.plm"}},
      {"PRIMARY_KEYS": {"classname": "iplm_item", "name": "CDB_Export", "role_id": "public"}, "DATA": {"cdb_module_id": "rbei.plm"}},
      {"PRIMARY_KEYS": {"classname": "rb_comp_2_rb_emp", "name": "CDB_Export", "role_id": "public"}, "DATA": {"cdb_module_id": "rbei.plm"}},
      {"PRIMARY_KEYS": {"classname": "rb_company", "name": "CDB_Export", "role_id": "public"}, "DATA": {"cdb_module_id": "rbei.plm"}},
      {"PRIMARY_KEYS": {"classname": "rb_employee", "name": "CDB_Export", "role_id": "public"}, "DATA": {"cdb_module_id": "rbei.plm"}},
      {"PRIMARY_KEYS": {"classname": "severity", "name": "CDB_Export", "role_id": "public"}, "DATA": {"cdb_module_id": "rbei.plm"}},
      {"PRIMARY_KEYS": {"classname": "testlab_person", "name": "CDB_Export", "role_id": "public"}, "DATA": {"cdb_module_id": "rbei.plm"}},
      {"PRIMARY_KEYS": {"classname": "testlab_plant", "name": "CDB_Export", "role_id": "public"}, "DATA": {"cdb_module_id": "rbei.plm"}},
      {"PRIMARY_KEYS": {"classname": "testlab_test", "name": "CDB_Export", "role_id": "public"}, "DATA": {"cdb_module_id": "rbei.plm"}},
      {"PRIMARY_KEYS": {"classname": "testlab_test_cycle", "name": "CDB_Export", "role_id": "public"}, "DATA": {"cdb_module_id": "rbei.plm"}},
      {"PRIMARY_KEYS": {"classname": "testlab_test_plan", "name": "CDB_Export", "role_id": "public"}, "DATA": {"cdb_module_id": "rbei.plm"}},
      {"PRIMARY_KEYS": {"classname": "testlab_test_range", "name": "CDB_Export", "role_id": "public"}, "DATA": {"cdb_module_id": "rbei.plm"}},
      {"PRIMARY_KEYS": {"classname": "change_request2document", "name": "CDB_Modify", "role_id": "public"}, "DATA": {"cdb_module_id": "rbei.plm"}},
      {"PRIMARY_KEYS": {"classname": "change_request2person", "name": "CDB_Modify", "role_id": "public"}, "DATA": {"cdb_module_id": "rbei.plm"}},
      {"PRIMARY_KEYS": {"classname": "change_request_tracker", "name": "CDB_Modify", "role_id": "public"}, "DATA": {"cdb_module_id": "rbei.plm"}},
      {"PRIMARY_KEYS": {"classname": "cpq_config_bom_item", "name": "CDB_Modify", "role_id": "public"}, "DATA": {"cdb_module_id": "rbei.plm"}},
      {"PRIMARY_KEYS": {"classname": "cpq_item", "name": "CDB_Modify", "role_id": "Administrator"}, "DATA": {"cdb_module_id": "rbei.plm"}},
      {"PRIMARY_KEYS": {"classname": "cpq_item", "name": "CDB_Modify", "role_id": "CPQ Bid Manager"}, "DATA": {"cdb_module_id": "rbei.plm"}},
      {"PRIMARY_KEYS": {"classname": "cpq_item", "name": "CDB_Modify", "role_id": "CPQ Creator"}, "DATA": {"cdb_module_id": "rbei.plm"}},
      {"PRIMARY_KEYS": {"classname": "cpq_item", "name": "CDB_Modify", "role_id": "CPQ Designer"}, "DATA": {"cdb_module_id": "rbei.plm"}},
      {"PRIMARY_KEYS": {"classname": "cpq_item2process", "name": "CDB_Modify", "role_id": "public"}, "DATA": {"cdb_module_id": "rbei.plm"}},
      {"PRIMARY_KEYS": {"classname": "cr_bug", "name": "CDB_Modify", "role_id": "public"}, "DATA": {"cdb_module_id": "rbei.plm"}},
      {"PRIMARY_KEYS": {"classname": "cr_feature", "name": "CDB_Modify", "role_id": "public"}, "DATA": {"cdb_module_id": "rbei.plm"}},
      {"PRIMARY_KEYS": {"classname": "customer", "name": "CDB_Modify", "role_id": "public"}, "DATA": {"cdb_module_id": "rbei.plm"}},
      {"PRIMARY_KEYS": {"classname": "dummy", "name": "CDB_Modify", "role_id": "public"}, "DATA": {"cdb_module_id": "rbei.plm"}},
      {"PRIMARY_KEYS": {"classname": "iplm_item", "name": "CDB_Modify", "role_id": "public"}, "DATA": {"cdb_module_id": "rbei.plm"}},
      {"PRIMARY_KEYS": {"classname": "rb_comp_2_rb_emp", "name": "CDB_Modify", "role_id": "public"}, "DATA": {"cdb_module_id": "rbei.plm"}},
      {"PRIMARY_KEYS": {"classname": "rb_company", "name": "CDB_Modify", "role_id": "public"}, "DATA": {"cdb_module_id": "rbei.plm"}},
      {"PRIMARY_KEYS": {"classname": "rb_employee", "name": "CDB_Modify", "role_id": "public"}, "DATA": {"cdb_module_id": "rbei.plm"}},
      {"PRIMARY_KEYS": {"classname": "severity", "name": "CDB_Modify", "role_id": "public"}, "DATA": {"cdb_module_id": "rbei.plm"}},
      {"PRIMARY_KEYS": {"classname": "testlab_person", "name": "CDB_Modify", "role_id": "public"}, "DATA": {"cdb_module_id": "rbei.plm"}},
      {"PRIMARY_KEYS": {"classname": "testlab_plant", "name": "CDB_Modify", "role_id": "public"}, "DATA": {"cdb_module_id": "rbei.plm"}},
      {"PRIMARY_KEYS": {"classname": "testlab_test_cycle", "name": "CDB_Modify", "role_id": "public"}, "DATA": {"cdb_module_id": "rbei.plm"}},
      {"PRIMARY_KEYS": {"classname": "testlab_test_plan", "name": "CDB_Modify", "role_id": "public"}, "DATA": {"cdb_module_id": "rbei.plm"}},
      {"PRIMARY_KEYS": {"classname": "testlab_test_range", "name": "CDB_Modify", "role_id": "public"}, "DATA": {"cdb_module_id": "rbei.plm"}},
      {"PRIMARY_KEYS": {"classname": "change_request2document", "name": "CDB_Search", "role_id": "public"}, "DATA": {"cdb_module_id": "rbei.plm"}},
      {"PRIMARY_KEYS": {"classname": "change_request2person", "name": "CDB_Search", "role_id": "public"}, "DATA": {"cdb_module_id": "rbei.plm"}},
      {"PRIMARY_KEYS": {"classname": "change_request_tracker", "name": "CDB_Search", "role_id": "public"}, "DATA": {"cdb_module_id": "rbei.plm"}},
      {"PRIMARY_KEYS": {"classname": "cpq_config_bom_item", "name": "CDB_Search", "role_id": "public"}, "DATA": {"cdb_module_id": "rbei.plm"}},
      {"PRIMARY_KEYS": {"classname": "cpq_item", "name": "CDB_Search", "role_id": "Administrator"}, "DATA": {"cdb_module_id": "rbei.plm"}},
      {"PRIMARY_KEYS": {"classname": "cpq_item", "name": "CDB_Search", "role_id": "CPQ Bid Manager"}, "DATA": {"cdb_module_id": "rbei.plm"}},
      {"PRIMARY_KEYS": {"classname": "cpq_item", "name": "CDB_Search", "role_id": "CPQ Creator"}, "DATA": {"cdb_module_id": "rbei.plm"}},
      {"PRIMARY_KEYS": {"classname": "cpq_item", "name": "CDB_Search", "role_id": "CPQ Designer"}, "DATA": {"cdb_module_id": "rbei.plm"}},
      {"PRIMARY_KEYS": {"classname": "cpq_item2process", "name": "CDB_Search", "role_id": "public"}, "DATA": {"cdb_module_id": "rbei.plm"}},
      {"PRIMARY_KEYS": {"classname": "cpq_project", "name": "CDB_Search", "role_id": "public"}, "DATA": {"cdb_module_id": "rbei.plm"}},
      {"PRIMARY_KEYS": {"classname": "cr_bug", "name": "CDB_Search", "role_id": "public"}, "DATA": {"cdb_module_id": "rbei.plm"}},
      {"PRIMARY_KEYS": {"classname": "cr_feature", "name": "CDB_Search", "role_id": "public"}, "DATA": {"cdb_module_id": "rbei.plm"}},
      {"PRIMARY_KEYS": {"classname": "customer", "name": "CDB_Search", "role_id": "CPQ Creator"}, "DATA": {"cdb_module_id": "rbei.plm"}},
      {"PRIMARY_KEYS": {"classname": "customer", "name": "CDB_Search", "role_id": "public"}, "DATA": {"cdb_module_id": "rbei.plm"}},
      {"PRIMARY_KEYS": {"classname": "dummy", "name": "CDB_Search", "role_id": "public"}, "DATA": {"cdb_module_id": "rbei.plm"}},
      {"PRIMARY_KEYS": {"classname": "iplm_item", "name": "CDB_Search", "role_id": "public"}, "DATA": {"cdb_module_id": "rbei.plm"}},
      {"PRIMARY_KEYS": {"classname": "rb_comp_2_rb_emp", "name": "CDB_Search", "role_id": "public"}, "DATA": {"cdb_module_id": "rbei.plm"}},
      {"PRIMARY_KEYS": {"classname": "rb_company", "name": "CDB_Search", "role_id": "public"}, "DATA": {"cdb_module_id": "rbei.plm"}},
      {"PRIMARY_KEYS": {"classname": "rb_employee", "name": "CDB_Search", "role_id": "public"}, "DATA": {"cdb_module_id": "rbei.plm"}},
      {"PRIMARY_KEYS": {"classname": "severity", "name": "CDB_Search", "role_id": "public"}, "DATA": {"cdb_module_id": "rbei.plm"}},
      {"PRIMARY_KEYS": {"classname": "testlab_emission", "name": "CDB_Search", "role_id": "public"}, "DATA": {"cdb_module_id": "rbei.plm"}},
      {"PRIMARY_KEYS": {"classname": "testlab_performance", "name": "CDB_Search", "role_id": "public"}, "DATA": {"cdb_module_id": "rbei.plm"}},
      {"PRIMARY_KEYS": {"classname": "testlab_person", "name": "CDB_Search", "role_id": "public"}, "DATA": {"cdb_module_id": "rbei.plm"}},
      {"PRIMARY_KEYS": {"classname": "testlab_plant", "name": "CDB_Search", "role_id": "public"}, "DATA": {"cdb_module_id": "rbei.plm"}},
      {"PRIMARY_KEYS": {"classname": "testlab_test", "name": "CDB_Search", "role_id": "public"}, "DATA": {"cdb_module_id": "rbei.plm"}},
      {"PRIMARY_KEYS": {"classname": "testlab_test_cycle", "name": "CDB_Search", "role_id": "public"}, "DATA": {"cdb_module_id": "rbei.plm"}},
      {"PRIMARY_KEYS": {"classname": "testlab_test_plan", "name": "CDB_Search", "role_id": "public"}, "DATA": {"cdb_module_id": "rbei.plm"}},
      {"PRIMARY_KEYS": {"classname": "testlab_test_range", "name": "CDB_Search", "role_id": "public"}, "DATA": {"cdb_module_id": "rbei.plm"}},
      {"PRIMARY_KEYS": {"classname": "change_request2document", "name": "CDB_SearchAgain", "role_id": "public"}, "DATA": {"cdb_module_id": "rbei.plm"}},
      {"PRIMARY_KEYS": {"classname": "change_request2person", "name": "CDB_SearchAgain", "role_id": "public"}, "DATA": {"cdb_module_id": "rbei.plm"}},
      {"PRIMARY_KEYS": {"classname": "change_request_tracker", "name": "CDB_SearchAgain", "role_id": "public"}, "DATA": {"cdb_module_id": "rbei.plm"}},
      {"PRIMARY_KEYS": {"classname": "cpq_config_bom_item", "name": "CDB_SearchAgain", "role_id": "public"}, "DATA": {"cdb_module_id": "rbei.plm"}},
      {"PRIMARY_KEYS": {"classname": "cpq_item", "name": "CDB_SearchAgain", "role_id": "public"}, "DATA": {"cdb_module_id": "rbei.plm"}},
      {"PRIMARY_KEYS": {"classname": "cpq_item2process", "name": "CDB_SearchAgain", "role_id": "public"}, "DATA": {"cdb_module_id": "rbei.plm"}},
      {"PRIMARY_KEYS": {"classname": "cr_bug", "name": "CDB_SearchAgain", "role_id": "public"}, "DATA": {"cdb_module_id": "rbei.plm"}},
      {"PRIMARY_KEYS": {"classname": "cr_feature", "name": "CDB_SearchAgain", "role_id": "public"}, "DATA": {"cdb_module_id": "rbei.plm"}},
      {"PRIMARY_KEYS": {"classname": "customer", "name": "CDB_SearchAgain", "role_id": "public"}, "DATA": {"cdb_module_id": "rbei.plm"}},
      {"PRIMARY_KEYS": {"classname": "dummy", "name": "CDB_SearchAgain", "role_id": "public"}, "DATA": {"cdb_module_id": "rbei.plm"}},
      {"PRIMARY_KEYS": {"classname": "iplm_item", "name": "CDB_SearchAgain", "role_id": "public"}, "DATA": {"cdb_module_id": "rbei.plm"}},
      {"PRIMARY_KEYS": {"classname": "rb_comp_2_rb_emp", "name": "CDB_SearchAgain", "role_id": "public"}, "DATA": {"cdb_module_id": "rbei.plm"}},
      {"PRIMARY_KEYS": {"classname": "rb_company", "name": "CDB_SearchAgain", "role_id": "public"}, "DATA": {"cdb_module_id": "rbei.plm"}},
      {"PRIMARY_KEYS": {"classname": "rb_employee", "name": "CDB_SearchAgain", "role_id": "public"}, "DATA": {"cdb_module_id": "rbei.plm"}},
      {"PRIMARY_KEYS": {"classname": "severity", "name": "CDB_SearchAgain", "role_id": "public"}, "DATA": {"cdb_module_id": "rbei.plm"}},
      {"PRIMARY_KEYS": {"classname": "testlab_emission", "name": "CDB_SearchAgain", "role_id": "public"}, "DATA": {"cdb_module_id": "rbei.plm"}},
      {"PRIMARY_KEYS": {"classname": "testlab_performance", "name": "CDB_SearchAgain", "role_id": "public"}, "DATA": {"cdb_module_id": "rbei.plm"}},
      {"PRIMARY_KEYS": {"classname": "testlab_person", "name": "CDB_SearchAgain", "role_id": "public"}, "DATA": {"cdb_module_id": "rbei.plm"}},
      {"PRIMARY_KEYS": {"classname": "testlab_plant", "name": "CDB_SearchAgain", "role_id": "public"}, "DATA": {"cdb_module_id": "rbei.plm"}},
      {"PRIMARY_KEYS": {"classname": "testlab_test", "name": "CDB_SearchAgain", "role_id": "public"}, "DATA": {"cdb_module_id": "rbei.plm"}},
      {"PRIMARY_KEYS": {"classname": "testlab_test_cycle", "name": "CDB_SearchAgain", "role_id": "public"}, "DATA": {"cdb_module_id": "rbei.plm"}},
      {"PRIMARY_KEYS": {"classname": "testlab_test_plan", "name": "CDB_SearchAgain", "role_id": "public"}, "DATA": {"cdb_module_id": "rbei.plm"}},
      {"PRIMARY_KEYS": {"classname": "testlab_test_range", "name": "CDB_SearchAgain", "role_id": "public"}, "DATA": {"cdb_module_id": "rbei.plm"}},
      {"PRIMARY_KEYS": {"classname": "change_request2document", "name": "CDB_SelectAndAssign", "role_id": "public"}, "DATA": {"cdb_module_id": "rbei.plm"}},
      {"PRIMARY_KEYS": {"classname": "change_request2person", "name": "CDB_SelectAndAssign", "role_id": "public"}, "DATA": {"cdb_module_id": "rbei.plm"}},
      {"PRIMARY_KEYS": {"classname": "change_request_tracker", "name": "CDB_SelectAndAssign", "role_id": "public"}, "DATA": {"cdb_module_id": "rbei.plm"}},
      {"PRIMARY_KEYS": {"classname": "cpq_item", "name": "CDB_SelectAndAssign", "role_id": "public"}, "DATA": {"cdb_module_id": "rbei.plm"}},
      {"PRIMARY_KEYS": {"classname": "cpq_item2process", "name": "CDB_SelectAndAssign", "role_id": "public"}, "DATA": {"cdb_module_id": "rbei.plm"}},
      {"PRIMARY_KEYS": {"classname": "customer", "name": "CDB_SelectAndAssign", "role_id": "public"}, "DATA": {"cdb_module_id": "rbei.plm"}},
      {"PRIMARY_KEYS": {"classname": "dummy", "name": "CDB_SelectAndAssign", "role_id": "public"}, "DATA": {"cdb_module_id": "rbei.plm"}},
      {"PRIMARY_KEYS": {"classname": "iplm_item", "name": "CDB_SelectAndAssign", "role_id": "public"}, "DATA": {"cdb_module_id": "rbei.plm"}},
      {"PRIMARY_KEYS": {"classname": "rb_comp_2_rb_emp", "name": "CDB_SelectAndAssign", "role_id": "public"}, "DATA": {"cdb_module_id": "rbei.plm"}},
      {"PRIMARY_KEYS": {"classname": "rb_company", "name": "CDB_SelectAndAssign", "role_id": "public"}, "DATA": {"cdb_module_id": "rbei.plm"}},
      {"PRIMARY_KEYS": {"classname": "rb_employee", "name": "CDB_SelectAndAssign", "role_id": "public"}, "DATA": {"cdb_module_id": "rbei.plm"}},
      {"PRIMARY_KEYS": {"classname": "severity", "name": "CDB_SelectAndAssign", "role_id": "public"}, "DATA": {"cdb_module_id": "rbei.plm"}},
      {"PRIMARY_KEYS": {"classname": "testlab_person", "name": "CDB_SelectAndAssign", "role_id": "public"}, "DATA": {"cdb_module_id": "rbei.plm"}},
      {"PRIMARY_KEYS": {"classname": "testlab_plant", "name": "CDB_SelectAndAssign", "role_id": "public"}, "DATA": {"cdb_module_id": "rbei.plm"}},
      {"PRIMARY_KEYS": {"classname": "testlab_test_cycle", "name": "CDB_SelectAndAssign", "role_id": "public"}, "DATA": {"cdb_module_id": "rbei.plm"}},
      {"PRIMARY_KEYS": {"classname": "testlab_test_plan", "name": "CDB_SelectAndAssign", "role_id": "public"}, "DATA": {"cdb_module_id": "rbei.plm"}},
      {"PRIMARY_KEYS": {"classname": "testlab_test_range", "name": "CDB_SelectAndAssign", "role_id": "public"}, "DATA": {"cdb_module_id": "rbei.plm"}},
      {"PRIMARY_KEYS": {"classname": "bom_item", "name": "CDB_SelectType", "role_id": "public"}, "DATA": {"cdb_module_id": "rbei.plm"}},
      {"PRIMARY_KEYS": {"classname": "cdbpcs_project", "name": "CDB_SelectType", "role_id": "public"}, "DATA": {"cdb_module_id": "rbei.plm"}},
      {"PRIMARY_KEYS": {"classname": "change_request_tracker", "name": "CDB_SelectType", "role_id": "public"}, "DATA": {"cdb_module_id": "rbei.plm"}},
      {"PRIMARY_KEYS": {"classname": "change_request2document", "name": "CDB_ShowObject", "role_id": "public"}, "DATA": {"cdb_module_id": "rbei.plm"}},
      {"PRIMARY_KEYS": {"classname": "change_request2person", "name": "CDB_ShowObject", "role_id": "public"}, "DATA": {"cdb_module_id": "rbei.plm"}},
      {"PRIMARY_KEYS": {"classname": "change_request_tracker", "name": "CDB_ShowObject", "role_id": "public"}, "DATA": {"cdb_module_id": "rbei.plm"}},
      {"PRIMARY_KEYS": {"classname": "cpq_config_bom_item", "name": "CDB_ShowObject", "role_id": "public"}, "DATA": {"cdb_module_id": "rbei.plm"}},
      {"PRIMARY_KEYS": {"classname": "cpq_item", "name": "CDB_ShowObject", "role_id": "Administrator"}, "DATA": {"cdb_module_id": "rbei.plm"}},
      {"PRIMARY_KEYS": {"classname": "cpq_item", "name": "CDB_ShowObject", "role_id": "CPQ Bid Manager"}, "DATA": {"cdb_module_id": "rbei.plm"}},
      {"PRIMARY_KEYS": {"classname": "cpq_item", "name": "CDB_ShowObject", "role_id": "CPQ Creator"}, "DATA": {"cdb_module_id": "rbei.plm"}},
      {"PRIMARY_KEYS": {"classname": "cpq_item", "name": "CDB_ShowObject", "role_id": "CPQ Designer"}, "DATA": {"cdb_module_id": "rbei.plm"}},
      {"PRIMARY_KEYS": {"classname": "cpq_item2process", "name": "CDB_ShowObject", "role_id": "public"}, "DATA": {"cdb_module_id": "rbei.plm"}},
      {"PRIMARY_KEYS": {"classname": "cr_bug", "name": "CDB_ShowObject", "role_id": "public"}, "DATA": {"cdb_module_id": "rbei.plm"}},
      {"PRIMARY_KEYS": {"classname": "cr_feature", "name": "CDB_ShowObject", "role_id": "public"}, "DATA": {"cdb_module_id": "rbei.plm"}},
      {"PRIMARY_KEYS": {"classname": "customer", "name": "CDB_ShowObject", "role_id": "public"}, "DATA": {"cdb_module_id": "rbei.plm"}},
      {"PRIMARY_KEYS": {"classname": "dummy", "name": "CDB_ShowObject", "role_id": "public"}, "DATA": {"cdb_module_id": "rbei.plm"}},
      {"PRIMARY_KEYS": {"classname": "iplm_item", "name": "CDB_ShowObject", "role_id": "public"}, "DATA": {"cdb_module_id": "rbei.plm"}},
      {"PRIMARY_KEYS": {"classname": "rb_comp_2_rb_emp", "name": "CDB_ShowObject", "role_id": "public"}, "DATA": {"cdb_module_id": "rbei.plm"}},
      {"PRIMARY_KEYS": {"classname": "rb_company", "name": "CDB_ShowObject", "role_id": "public"}, "DATA": {"cdb_module_id": "rbei.plm"}},
      {"PRIMARY_KEYS": {"classname": "rb_employee", "name": "CDB_ShowObject", "role_id": "public"}, "DATA": {"cdb_module_id": "rbei.plm"}},
      {"PRIMARY_KEYS": {"classname": "severity", "name": "CDB_ShowObject", "role_id": "public"}, "DATA": {"cdb_module_id": "rbei.plm"}},
      {"PRIMARY_KEYS": {"classname": "testlab_emission", "name": "CDB_ShowObject", "role_id": "public"}, "DATA": {"cdb_module_id": "rbei.plm"}},
      {"PRIMARY_KEYS": {"classname": "testlab_performance", "name": "CDB_ShowObject", "role_id": "public"}, "DATA": {"cdb_module_id": "rbei.plm"}},
      {"PRIMARY_KEYS": {"classname": "testlab_person", "name": "CDB_ShowObject", "role_id": "public"}, "DATA": {"cdb_module_id": "rbei.plm"}},
      {"PRIMARY_KEYS": {"classname": "testlab_plant", "name": "CDB_ShowObject", "role_id": "public"}, "DATA": {"cdb_module_id": "rbei.plm"}},
      {"PRIMARY_KEYS": {"classname": "testlab_test_cycle", "name": "CDB_ShowObject", "role_id": "public"}, "DATA": {"cdb_module_id": "rbei.plm"}},
      {"PRIMARY_KEYS": {"classname": "testlab_test_plan", "name": "CDB_ShowObject", "role_id": "public"}, "DATA": {"cdb_module_id": "rbei.plm"}},
      {"PRIMARY_KEYS": {"classname": "testlab_test_range", "name": "CDB_ShowObject", "role_id": "public"}, "DATA": {"cdb_module_id": "rbei.plm"}},
      {"PRIMARY_KEYS": {"classname": "cdbpcs_project", "name": "CDB_Workflow", "role_id": "CPQ Creator"}, "DATA": {"cdb_module_id": "rbei.plm"}},
      {"PRIMARY_KEYS": {"classname": "change_request_tracker", "name": "CDB_Workflow", "role_id": "public"}, "DATA": {"cdb_module_id": "rbei.plm"}},
      {"PRIMARY_KEYS": {"classname": "cpq_item", "name": "CDB_Workflow", "role_id": "public"}, "DATA": {"cdb_module_id": "rbei.plm"}},
      {"PRIMARY_KEYS": {"classname": "rb_employee", "name": "CDB_Workflow", "role_id": "public"}, "DATA": {"cdb_module_id": "rbei.plm"}},
      {"PRIMARY_KEYS": {"classname": "testlab_test_plan", "name": "CDB_Workflow", "role_id": "public"}, "DATA": {"cdb_module_id": "rbei.plm"}},
      {"PRIMARY_KEYS": {"classname": "cpq_item", "name": "cdbwf_ahwf_new", "role_id": "public"}, "DATA": {"cdb_module_id": "rbei.plm"}},
      {"PRIMARY_KEYS": {"classname": "cpq_item", "name": "cdbwf_ahwf_new_from_template", "role_id": "public"}, "DATA": {"cdb_module_id": "rbei.plm"}},
      {"PRIMARY_KEYS": {"classname": "cpq_item", "name": "cdbxml_excel_report", "role_id": "public"}, "DATA": {"cdb_module_id": "rbei.plm"}},
      {"PRIMARY_KEYS": {"classname": "cpq_config_bom_item", "name": "cpq_add_pricing", "role_id": "public"}, "DATA": {"cdb_module_id": "rbei.plm"}},
      {"PRIMARY_KEYS": {"classname": "cpq_item", "name": "cpq_generate_config_bom", "role_id": "public"}, "DATA": {"cdb_module_id": "rbei.plm"}},
      {"PRIMARY_KEYS": {"classname": "cpq_item", "name": "cpq_item_overview", "role_id": "public"}, "DATA": {"cdb_module_id": "rbei.plm"}},
      {"PRIMARY_KEYS": {"classname": "part", "name": "cpq_total_cost", "role_id": "public"}, "DATA": {"cdb_module_id": "rbei.plm"}},
      {"PRIMARY_KEYS": {"classname": "change_request_tracker", "name": "quick_close", "role_id": "Administrator"}, "DATA": {"cdb_module_id": "rbei.plm"}},
      {"PRIMARY_KEYS": {"classname": "rb_employee", "name": "rb_employee_set_as_manager", "role_id": "public"}, "DATA": {"cdb_module_id": "rbei.plm"}},
      {"PRIMARY_KEYS": {"classname": "change_request_tracker", "name": "set_critical_severity", "role_id": "public"}, "DATA": {"cdb_module_id": "rbei.plm"}},
      {"PRIMARY_KEYS": {"classname": "bom_column", "name": "test_favourite_search", "role_id": "public"}, "DATA": {"cdb_module_id": "rbei.plm"}},
      {"PRIMARY_KEYS": {"classname": "bom_config", "name": "test_favourite_search", "role_id": "public"}, "DATA": {"cdb_module_id": "rbei.plm"}},
      {"PRIMARY_KEYS": {"classname": "bom_config_to_role", "name": "test_favourite_search", "role_id": "public"}, "DATA": {"cdb_module_id": "rbei.plm"}},
      {"PRIMARY_KEYS": {"classname": "bom_item_occurrence", "name": "test_favourite_search", "role_id": "public"}, "DATA": {"cdb_module_id": "rbei.plm"}},
      {"PRIMARY_KEYS": {"classname": "bom_key_attribute", "name": "test_favourite_search", "role_id": "public"}, "DATA": {"cdb_module_id": "rbei.plm"}},
      {"PRIMARY_KEYS": {"classname": "bom_mapping", "name": "test_favourite_search", "role_id": "public"}, "DATA": {"cdb_module_id": "rbei.plm"}},
      {"PRIMARY_KEYS": {"classname": "bom_method", "name": "test_favourite_search", "role_id": "public"}, "DATA": {"cdb_module_id": "rbei.plm"}},
      {"PRIMARY_KEYS": {"classname": "bom_sync_attribute", "name": "test_favourite_search", "role_id": "public"}, "DATA": {"cdb_module_id": "rbei.plm"}},
      {"PRIMARY_KEYS": {"classname": "cad_variant", "name": "test_favourite_search", "role_id": "public"}, "DATA": {"cdb_module_id": "rbei.plm"}},
      {"PRIMARY_KEYS": {"classname": "cdb_action", "name": "test_favourite_search", "role_id": "public"}, "DATA": {"cdb_module_id": "rbei.plm"}},
      {"PRIMARY_KEYS": {"classname": "cdb_action2doc", "name": "test_favourite_search", "role_id": "public"}, "DATA": {"cdb_module_id": "rbei.plm"}},
      {"PRIMARY_KEYS": {"classname": "cdb_action2ec", "name": "test_favourite_search", "role_id": "public"}, "DATA": {"cdb_module_id": "rbei.plm"}},
      {"PRIMARY_KEYS": {"classname": "cdb_action2issue", "name": "test_favourite_search", "role_id": "public"}, "DATA": {"cdb_module_id": "rbei.plm"}},
      {"PRIMARY_KEYS": {"classname": "cdb_action_prot", "name": "test_favourite_search", "role_id": "public"}, "DATA": {"cdb_module_id": "rbei.plm"}},
      {"PRIMARY_KEYS": {"classname": "cdb_defect", "name": "test_favourite_search", "role_id": "public"}, "DATA": {"cdb_module_id": "rbei.plm"}},
      {"PRIMARY_KEYS": {"classname": "cdb_defect2action", "name": "test_favourite_search", "role_id": "public"}, "DATA": {"cdb_module_id": "rbei.plm"}},
      {"PRIMARY_KEYS": {"classname": "cdb_defect2doc", "name": "test_favourite_search", "role_id": "public"}, "DATA": {"cdb_module_id": "rbei.plm"}},
      {"PRIMARY_KEYS": {"classname": "cdb_defect2ec", "name": "test_favourite_search", "role_id": "public"}, "DATA": {"cdb_module_id": "rbei.plm"}},
      {"PRIMARY_KEYS": {"classname": "cdb_defect_categ", "name": "test_favourite_search", "role_id": "public"}, "DATA": {"cdb_module_id": "rbei.plm"}},
      {"PRIMARY_KEYS": {"classname": "cdb_defect_code", "name": "test_favourite_search", "role_id": "public"}, "DATA": {"cdb_module_id": "rbei.plm"}},
      {"PRIMARY_KEYS": {"classname": "cdb_defect_prot", "name": "test_favourite_search", "role_id": "public"}, "DATA": {"cdb_module_id": "rbei.plm"}},
      {"PRIMARY_KEYS": {"classname": "cdb_defect_source", "name": "test_favourite_search", "role_id": "public"}, "DATA": {"cdb_module_id": "rbei.plm"}},
      {"PRIMARY_KEYS": {"classname": "cdb_defect_type", "name": "test_favourite_search", "role_id": "public"}, "DATA": {"cdb_module_id": "rbei.plm"}},
      {"PRIMARY_KEYS": {"classname": "cdbpco_calc2doc", "name": "test_favourite_search", "role_id": "public"}, "DATA": {"cdb_module_id": "rbei.plm"}},
      {"PRIMARY_KEYS": {"classname": "cdbpco_calculation", "name": "test_favourite_search", "role_id": "public"}, "DATA": {"cdb_module_id": "rbei.plm"}},
      {"PRIMARY_KEYS": {"classname": "cdbpco_calculation_statiprot", "name": "test_favourite_search", "role_id": "Administrator"}, "DATA": {"cdb_module_id": "rbei.plm"}},
      {"PRIMARY_KEYS": {"classname": "cdbpco_comp2product", "name": "test_favourite_search", "role_id": "public"}, "DATA": {"cdb_module_id": "rbei.plm"}},
      {"PRIMARY_KEYS": {"classname": "cdbpco_comp_folder", "name": "test_favourite_search", "role_id": "public"}, "DATA": {"cdb_module_id": "rbei.plm"}},
      {"PRIMARY_KEYS": {"classname": "cdbpco_component", "name": "test_favourite_search", "role_id": "public"}, "DATA": {"cdb_module_id": "rbei.plm"}},
      {"PRIMARY_KEYS": {"classname": "cdbpco_curr_convert", "name": "test_favourite_search", "role_id": "public"}, "DATA": {"cdb_module_id": "rbei.plm"}},
      {"PRIMARY_KEYS": {"classname": "cdbpco_currency", "name": "test_favourite_search", "role_id": "public"}, "DATA": {"cdb_module_id": "rbei.plm"}},
      {"PRIMARY_KEYS": {"classname": "cdbpco_delivery", "name": "test_favourite_search", "role_id": "public"}, "DATA": {"cdb_module_id": "rbei.plm"}},
      {"PRIMARY_KEYS": {"classname": "cdbpco_para_def", "name": "test_favourite_search", "role_id": "public"}, "DATA": {"cdb_module_id": "rbei.plm"}},
      {"PRIMARY_KEYS": {"classname": "cdbpco_para_val", "name": "test_favourite_search", "role_id": "public"}, "DATA": {"cdb_module_id": "rbei.plm"}},
      {"PRIMARY_KEYS": {"classname": "cdbpco_part_cost", "name": "test_favourite_search", "role_id": "public"}, "DATA": {"cdb_module_id": "rbei.plm"}},
      {"PRIMARY_KEYS": {"classname": "cdbpco_product", "name": "test_favourite_search", "role_id": "public"}, "DATA": {"cdb_module_id": "rbei.plm"}},
      {"PRIMARY_KEYS": {"classname": "cdbpco_result_def", "name": "test_favourite_search", "role_id": "public"}, "DATA": {"cdb_module_id": "rbei.plm"}},
      {"PRIMARY_KEYS": {"classname": "cdbpco_result_val", "name": "test_favourite_search", "role_id": "public"}, "DATA": {"cdb_module_id": "rbei.plm"}},
      {"PRIMARY_KEYS": {"classname": "cdbpco_schema", "name": "test_favourite_search", "role_id": "public"}, "DATA": {"cdb_module_id": "rbei.plm"}},
      {"PRIMARY_KEYS": {"classname": "cdbpco_unit_convert", "name": "test_favourite_search", "role_id": "public"}, "DATA": {"cdb_module_id": "rbei.plm"}},
      {"PRIMARY_KEYS": {"classname": "cs_tasks_attribute", "name": "test_favourite_search", "role_id": "public"}, "DATA": {"cdb_module_id": "rbei.plm"}},
      {"PRIMARY_KEYS": {"classname": "cs_tasks_class", "name": "test_favourite_search", "role_id": "public"}, "DATA": {"cdb_module_id": "rbei.plm"}},
      {"PRIMARY_KEYS": {"classname": "cs_tasks_column", "name": "test_favourite_search", "role_id": "public"}, "DATA": {"cdb_module_id": "rbei.plm"}},
      {"PRIMARY_KEYS": {"classname": "index_update_rule", "name": "test_favourite_search", "role_id": "public"}, "DATA": {"cdb_module_id": "rbei.plm"}},
      {"PRIMARY_KEYS": {"classname": "rb_employee", "name": "test_favourite_search", "role_id": "public"}, "DATA": {"cdb_module_id": "rbei.plm"}},
      {"PRIMARY_KEYS": {"classname": "testlab_test", "name": "testlab_test_initiate_testing", "role_id": "public"}, "DATA": {"cdb_module_id": "rbei.plm"}}
    ],
    "CONTENT_DOMAIN": "",
    "UPDATE_POLICY": "ALWAYS UPDATED"
  }
}