{
  "cdb_rs_owner": {
    "CONTENT": [
      {"PRIMARY_KEYS": {"name": "cpq_item2assembly", "role_id": "public"}, "DATA": {"cdb_module_id": "rbei.plm"}},
      {"PRIMARY_KEYS": {"name": "cpq_item2assembly_config", "role_id": "public"}, "DATA": {"cdb_module_id": "rbei.plm"}},
      {"PRIMARY_KEYS": {"name": "cpq_item2cdb_file", "role_id": "public"}, "DATA": {"cdb_module_id": "rbei.plm"}},
      {"PRIMARY_KEYS": {"name": "cpq_item2customer", "role_id": "public"}, "DATA": {"cdb_module_id": "rbei.plm"}},
      {"PRIMARY_KEYS": {"name": "cpq_item2process", "role_id": "public"}, "DATA": {"cdb_module_id": "rbei.plm"}},
      {"PRIMARY_KEYS": {"name": "cpq_item2project", "role_id": "public"}, "DATA": {"cdb_module_id": "rbei.plm"}},
      {"PRIMARY_KEYS": {"name": "cpq_item2reference", "role_id": "public"}, "DATA": {"cdb_module_id": "rbei.plm"}},
      {"PRIMARY_KEYS": {"name": "cpq_item2response", "role_id": "public"}, "DATA": {"cdb_module_id": "rbei.plm"}},
      {"PRIMARY_KEYS": {"name": "test2test_cylce", "role_id": "public"}, "DATA": {"cdb_module_id": "rbei.plm"}},
      {"PRIMARY_KEYS": {"name": "test_cycle2cdb_file", "role_id": "public"}, "DATA": {"cdb_module_id": "rbei.plm"}},
      {"PRIMARY_KEYS": {"name": "test_cycle2cdb_person_cnr", "role_id": "public"}, "DATA": {"cdb_module_id": "rbei.plm"}},
      {"PRIMARY_KEYS": {"name": "test_cycle2cdb_person_mnr", "role_id": "public"}, "DATA": {"cdb_module_id": "rbei.plm"}},
      {"PRIMARY_KEYS": {"name": "test_cycle2test", "role_id": "public"}, "DATA": {"cdb_module_id": "rbei.plm"}},
      {"PRIMARY_KEYS": {"name": "test_cycle2test_plan", "role_id": "public"}, "DATA": {"cdb_module_id": "rbei.plm"}},
      {"PRIMARY_KEYS": {"name": "testlab_workflow2process", "role_id": "public"}, "DATA": {"cdb_module_id": "rbei.plm"}},
      {"PRIMARY_KEYS": {"name": "testplan2Part", "role_id": "public"}, "DATA": {"cdb_module_id": "rbei.plm"}},
      {"PRIMARY_KEYS": {"name": "testplan2documents", "role_id": "public"}, "DATA": {"cdb_module_id": "rbei.plm"}},
      {"PRIMARY_KEYS": {"name": "testplan2testcycles", "role_id": "public"}, "DATA": {"cdb_module_id": "rbei.plm"}}
    ],
    "CONTENT_DOMAIN": "",
    "UPDATE_POLICY": "ALWAYS UPDATED"
  }
}