{
  "cdb_enum": {
    "CONTENT": [
      {"PRIMARY_KEYS": {"name": "EUR", "type": "c_cpq_currency"}, "DATA": {"cdb_module_id": "rbei.plm", "description": "", "description_cs": null, "description_en": "", "description_es": null, "description_fr": null, "description_it": null, "description_ja": null, "description_ko": null, "description_pl": null, "description_pt": null, "description_tr": "", "description_zh": "", "position": null, "value": "EUR"}},
      {"PRIMARY_KEYS": {"name": "USD", "type": "c_cpq_currency"}, "DATA": {"cdb_module_id": "rbei.plm", "description": "", "description_cs": "", "description_en": "", "description_es": "", "description_fr": "", "description_it": "", "description_ja": "", "description_ko": "", "description_pl": "", "description_pt": "", "description_tr": "", "description_zh": "", "position": null, "value": "USD"}},
      {"PRIMARY_KEYS": {"name": "high", "type": "estlab_plan_priority"}, "DATA": {"cdb_module_id": "rbei.plm", "description": "", "description_cs": null, "description_en": "", "description_es": null, "description_fr": null, "description_it": null, "description_ja": null, "description_ko": null, "description_pl": null, "description_pt": null, "description_tr": "", "description_zh": "", "position": 2, "value": "High"}},
      {"PRIMARY_KEYS": {"name": "High", "type": "testlab_plan_priority"}, "DATA": {"cdb_module_id": "rbei.plm", "description": "", "description_cs": "", "description_en": "", "description_es": "", "description_fr": "", "description_it": "", "description_ja": "", "description_ko": "", "description_pl": "", "description_pt": "", "description_tr": "", "description_zh": "", "position": 2, "value": "High"}},
      {"PRIMARY_KEYS": {"name": "Low", "type": "testlab_plan_priority"}, "DATA": {"cdb_module_id": "rbei.plm", "description": "", "description_cs": "", "description_en": "", "description_es": "", "description_fr": "", "description_it": "", "description_ja": "", "description_ko": "", "description_pl": "", "description_pt": "", "description_tr": "", "description_zh": "", "position": 0, "value": "Low"}},
      {"PRIMARY_KEYS": {"name": "Medium", "type": "testlab_plan_priority"}, "DATA": {"cdb_module_id": "rbei.plm", "description": "", "description_cs": "", "description_en": "", "description_es": "", "description_fr": "", "description_it": "", "description_ja": "", "description_ko": "", "description_pl": "", "description_pt": "", "description_tr": "", "description_zh": "", "position": 1, "value": "Medium"}},
      {"PRIMARY_KEYS": {"name": "External Test", "type": "testlab_test_type"}, "DATA": {"cdb_module_id": "rbei.plm", "description": "", "description_cs": "", "description_en": "", "description_es": "", "description_fr": "", "description_it": "", "description_ja": "", "description_ko": "", "description_pl": "", "description_pt": "", "description_tr": "", "description_zh": "", "position": null, "value": "External Test"}},
      {"PRIMARY_KEYS": {"name": "Internal Test", "type": "testlab_test_type"}, "DATA": {"cdb_module_id": "rbei.plm", "description": "", "description_cs": "", "description_en": "", "description_es": "", "description_fr": "", "description_it": "", "description_ja": "", "description_ko": "", "description_pl": "", "description_pt": "", "description_tr": "", "description_zh": "", "position": null, "value": "Internal Test"}},
      {"PRIMARY_KEYS": {"name": "Diesel", "type": "testlab_vehicle_type"}, "DATA": {"cdb_module_id": "rbei.plm", "description": "", "description_cs": "", "description_en": "", "description_es": "", "description_fr": "", "description_it": "", "description_ja": "", "description_ko": "", "description_pl": "", "description_pt": "", "description_tr": "", "description_zh": "", "position": null, "value": "Diesel"}},
      {"PRIMARY_KEYS": {"name": "Petrol", "type": "testlab_vehicle_type"}, "DATA": {"cdb_module_id": "rbei.plm", "description": "", "description_cs": "", "description_en": "", "description_es": "", "description_fr": "", "description_it": "", "description_ja": "", "description_ko": "", "description_pl": "", "description_pt": "", "description_tr": "", "description_zh": "", "position": null, "value": "Petrol"}}
    ],
    "CONTENT_DOMAIN": "",
    "UPDATE_POLICY": "ALWAYS REPLACED"
  }
}