{
  "cdbdd_constraint": {
    "CONTENT": [
      {"PRIMARY_KEYS": {"cdb_object_id": "019e46e1-d5bf-11e8-9bf8-94659cb8591a"}, "DATA": {"cdb_classname": "cdbdd_primary_key", "cdb_module_id": "rbei.plm", "classname": "rb_comp_2_rb_emp", "description": null, "exclude_empty_values": null, "fields_info": "comp_id, emp_id"}},
      {"PRIMARY_KEYS": {"cdb_object_id": "2b1929cd-32d8-11e9-beb1-5891cf1bbe39"}, "DATA": {"cdb_classname": "cdbdd_primary_key", "cdb_module_id": "rbei.plm", "classname": "testlab_test", "description": null, "exclude_empty_values": null, "fields_info": "testlab_test_id"}},
      {"PRIMARY_KEYS": {"cdb_object_id": "34aa1450-1aaf-11e7-89b2-94659cb8591a"}, "DATA": {"cdb_classname": "cdbdd_primary_key", "cdb_module_id": "rbei.plm", "classname": "severity", "description": null, "exclude_empty_values": null, "fields_info": "severity"}},
      {"PRIMARY_KEYS": {"cdb_object_id": "566937c0-1b71-11e7-b9e5-94659cb8591a"}, "DATA": {"cdb_classname": "cdbdd_primary_key", "cdb_module_id": "rbei.plm", "classname": "change_request2person", "description": null, "exclude_empty_values": null, "fields_info": "cr_id, personalnummer"}},
      {"PRIMARY_KEYS": {"cdb_object_id": "6248e130-2fbc-11e7-8238-94659cb8591a"}, "DATA": {"cdb_classname": "cdbdd_primary_key", "cdb_module_id": "rbei.plm", "classname": "customer", "description": null, "exclude_empty_values": null, "fields_info": "cust_id"}},
      {"PRIMARY_KEYS": {"cdb_object_id": "6af98800-29bf-11e7-8158-dc4a3e007fda"}, "DATA": {"cdb_classname": "cdbdd_primary_key", "cdb_module_id": "rbei.plm", "classname": "dummy", "description": null, "exclude_empty_values": null, "fields_info": "cdb_object_id"}},
      {"PRIMARY_KEYS": {"cdb_object_id": "6f3012f0-5a29-11e7-b70d-94659cb8591a"}, "DATA": {"cdb_classname": "cdbdd_primary_key", "cdb_module_id": "rbei.plm", "classname": "iplm_item", "description": null, "exclude_empty_values": null, "fields_info": "iplm_id"}},
      {"PRIMARY_KEYS": {"cdb_object_id": "713f6563-2f7c-11e9-b995-5891cf1bbc2c"}, "DATA": {"cdb_classname": "cdbdd_unique_constraint", "cdb_module_id": "rbei.plm", "classname": "testlab_test_plan", "description": "", "exclude_empty_values": 0, "fields_info": "teilenummer"}},
      {"PRIMARY_KEYS": {"cdb_object_id": "777405bc-361d-11e9-a676-94659cb858bb"}, "DATA": {"cdb_classname": "cdbdd_primary_key", "cdb_module_id": "rbei.plm", "classname": "testlab_test_range", "description": null, "exclude_empty_values": null, "fields_info": "testlab_test_type, test_parameter"}},
      {"PRIMARY_KEYS": {"cdb_object_id": "821e724f-3169-11e7-8de9-94659cb8591a"}, "DATA": {"cdb_classname": "cdbdd_primary_key", "cdb_module_id": "rbei.plm", "classname": "cpq_item2process", "description": null, "exclude_empty_values": null, "fields_info": "cdb_process_id, cpq_id"}},
      {"PRIMARY_KEYS": {"cdb_object_id": "8a227714-1aa5-11e7-86e6-94659cb8591a"}, "DATA": {"cdb_classname": "cdbdd_primary_key", "cdb_module_id": "rbei.plm", "classname": "change_request_tracker", "description": null, "exclude_empty_values": null, "fields_info": "id"}},
      {"PRIMARY_KEYS": {"cdb_object_id": "99801170-d1d0-11e8-917b-94659cb8591a"}, "DATA": {"cdb_classname": "cdbdd_primary_key", "cdb_module_id": "rbei.plm", "classname": "rb_employee", "description": null, "exclude_empty_values": null, "fields_info": "emp_id"}},
      {"PRIMARY_KEYS": {"cdb_object_id": "ab4f21b0-1b6b-11e7-ae2e-94659cb8591a"}, "DATA": {"cdb_classname": "cdbdd_primary_key", "cdb_module_id": "rbei.plm", "classname": "change_request2document", "description": null, "exclude_empty_values": null, "fields_info": "cr_id, z_nummer, z_index"}},
      {"PRIMARY_KEYS": {"cdb_object_id": "bab594b6-2eb5-11e9-91b0-5891cf1bbc2c"}, "DATA": {"cdb_classname": "cdbdd_primary_key", "cdb_module_id": "rbei.plm", "classname": "testlab_test_plan", "description": null, "exclude_empty_values": null, "fields_info": "test_plan_id"}},
      {"PRIMARY_KEYS": {"cdb_object_id": "c1369c46-2f7f-11e9-8428-5891cf1bbe39"}, "DATA": {"cdb_classname": "cdbdd_primary_key", "cdb_module_id": "rbei.plm", "classname": "testlab_test_cycle", "description": null, "exclude_empty_values": null, "fields_info": "test_cycle_id"}},
      {"PRIMARY_KEYS": {"cdb_object_id": "ce943dea-3032-11e9-9353-5891cf1bbc2c"}, "DATA": {"cdb_classname": "cdbdd_primary_key", "cdb_module_id": "rbei.plm", "classname": "testlab_plant", "description": null, "exclude_empty_values": null, "fields_info": "plant_id, plant_name"}},
      {"PRIMARY_KEYS": {"cdb_object_id": "d1286370-2fc4-11e7-9fd7-94659cb8591a"}, "DATA": {"cdb_classname": "cdbdd_primary_key", "cdb_module_id": "rbei.plm", "classname": "cpq_item", "description": null, "exclude_empty_values": null, "fields_info": "cpq_id"}},
      {"PRIMARY_KEYS": {"cdb_object_id": "de6c8f51-d5ba-11e8-bf4f-94659cb8591a"}, "DATA": {"cdb_classname": "cdbdd_primary_key", "cdb_module_id": "rbei.plm", "classname": "rb_company", "description": null, "exclude_empty_values": null, "fields_info": "comp_id"}},
      {"PRIMARY_KEYS": {"cdb_object_id": "ede2d0dc-3036-11e9-9353-5891cf1bbc2c"}, "DATA": {"cdb_classname": "cdbdd_primary_key", "cdb_module_id": "rbei.plm", "classname": "testlab_person", "description": null, "exclude_empty_values": null, "fields_info": "person_id"}}
    ],
    "CONTENT_DOMAIN": "",
    "UPDATE_POLICY": "ALWAYS UPDATED"
  }
}